simple_fighte_game/tb_game.vcd
$date
	Sun Jan 28 13:38:02 2024
$end
$version
	Icarus Verilog
$end
$timescale
	1s
$end
$scope module tb_game $end
$var wire 2 ! player2_pos [1:0] $end
$var wire 2 " player2_health [1:0] $end
$var wire 2 # player1_pos [1:0] $end
$var wire 2 $ player1_health [1:0] $end
$var reg 1 % CLK $end
$var reg 1 & player1_back $end
$var reg 1 ' player1_forward $end
$var reg 1 ( player1_jump $end
$var reg 1 ) player1_kick $end
$var reg 1 * player1_punch $end
$var reg 1 + player1_waiting $end
$var reg 1 , player2_back $end
$var reg 1 - player2_forward $end
$var reg 1 . player2_jump $end
$var reg 1 / player2_kick $end
$var reg 1 0 player2_punch $end
$var reg 1 1 player2_waiting $end
$scope module g $end
$var wire 1 % CLK $end
$var wire 1 & player1_back $end
$var wire 1 ' player1_forward $end
$var wire 1 ( player1_jump $end
$var wire 1 ) player1_kick $end
$var wire 1 * player1_punch $end
$var wire 1 + player1_waiting $end
$var wire 1 , player2_back $end
$var wire 1 - player2_forward $end
$var wire 1 . player2_jump $end
$var wire 1 / player2_kick $end
$var wire 1 0 player2_punch $end
$var wire 1 1 player2_waiting $end
$var wire 2 2 player2_pos [1:0] $end
$var wire 2 3 player2_health [1:0] $end
$var wire 2 4 player1_pos [1:0] $end
$var wire 2 5 player1_health [1:0] $end
$var wire 10 6 nxtstate [9:0] $end
$var wire 3 7 dis [2:0] $end
$var reg 2 8 nxthealth1 [1:0] $end
$var reg 2 9 nxthealth2 [1:0] $end
$var reg 2 : nxtpos1 [1:0] $end
$var reg 2 ; nxtpos2 [1:0] $end
$var reg 1 < nxtwait1 $end
$var reg 1 = nxtwait2 $end
$var reg 10 > prstate [9:0] $end
$upscope $end
$upscope $end
$enddefinitions $end
$comment Show the parameter values. $end
$dumpall
$end
#0
$dumpvars
b1111 >
0=
0<
b1 ;
b1 :
b11 9
b11 8
b10 7
b101001111 6
b11 5
b0 4
b11 3
b0 2
01
00
0/
0.
1-
0,
0+
0*
0)
0(
1'
0&
0%
b11 $
b0 #
b11 "
b0 !
$end
#100
b10 ;
b1010001111 6
b0 7
b10 :
b1 #
b1 4
b1 !
b1 2
b101001111 >
1%
#200
0%
#300
b10 #
b10 4
b10 !
b10 2
b1010001111 >
1%
#400
b1 ;
b101001111 6
b10 7
b1 :
0%
10
1*
0-
0'
#500
b1 #
b1 4
b1 !
b1 2
b101001111 >
1%
#600
b10 9
b110001110 6
b1 7
b10 ;
0%
1-
1)
00
0*
#700
b110001101 6
b1 9
b10 !
b10 2
b10 "
b10 3
b110001110 >
1%
#800
b1 8
b0 7
b10 :
b1010000110 6
b10 9
0%
10
1'
0-
0)
#900
b1010000010 6
b0 8
b10 #
b10 4
b1 $
b1 5
b1010000110 >
1%
#1000
1=
1<
b1010110110 6
b1 8
0%
11
1+
00
0'
#1100
0=
b11 9
0<
b1010001011 6
b10 8
b1010110110 >
1%
#1200
0%
#1300
1=
b1010111011 6
1<
b10 $
b10 5
b11 "
b11 3
b1010001011 >
1%
#1400
b1 9
0=
b1010001001 6
0<
0%
1/
1*
01
0+
#1500
b1010001000 6
b0 9
b1 "
b1 3
b1010001001 >
1%
#1600
b1010001001 6
b1 9
0%
10
1(
0/
0*
